CPU_V1(Modules1-12)/isim.log
ISim log file
Running: C:\Users\Justin\Downloads\GBRAINS_CPU\CPU_V1(Modules1-12)\CPU_Test_isim_beh.exe -intstyle ise -gui -tclbatch isim.cmd -wdb C:/Users/Justin/Downloads/GBRAINS_CPU/CPU_V1(Modules1-12)/CPU_Test_isim_beh.wdb 
ISim P.20131013 (signature 0x7708f090)
WARNING: A WEBPACK license was found.
WARNING: Please use Xilinx License Configuration Manager to check out a full ISim license.
WARNING: ISim will run in Lite mode. Please refer to the ISim documentation for more information on the differences between the Lite and the Full version.
This is a Lite version of ISim.
Time resolution is 1 ps
# onerror resume
# wave add /
# run 1000 ns
Simulator is doing circuit initialization process.
               C E C S 4 4 0    S E N I O R P R O J E C T   
Finished circuit initialization process.
BREAK INSTRUCTION FETCHED  620.0 ns
 R E G I S T E R S	A F T E R	B R E A K
 
                    CECS 440   R e g i s t e r   D u m p    
************************************************************
   TIME        ||               Regfile T ($ri)   ||        
************************************************************
time:  641.0 ns ns	 $r[0]: 00000000    $r[16]: xxxxxxxx
time:  651.0 ns ns	 $r[1]: 12345678    $r[17]: xxxxxxxx
time:  661.0 ns ns	 $r[2]: 87654321    $r[18]: xxxxxxxx
time:  671.0 ns ns	 $r[3]: 12345678    $r[19]: xxxxxxxx
time:  681.0 ns ns	 $r[4]: xxxxxxxx    $r[20]: xxxxxxxx
time:  691.0 ns ns	 $r[5]: xxxxxxxx    $r[21]: xxxxxxxx
time:  701.0 ns ns	 $r[6]: xxxxxxxx    $r[22]: xxxxxxxx
time:  711.0 ns ns	 $r[7]: xxxxxxxx    $r[23]: xxxxxxxx
time:  721.0 ns ns	 $r[8]: xxxxxxxx    $r[24]: xxxxxxxx
time:  731.0 ns ns	 $r[9]: xxxxxxxx    $r[25]: xxxxxxxx
time:  741.0 ns ns	 $r[10]: xxxxxxxx    $r[26]: xxxxxxxx
time:  751.0 ns ns	 $r[11]: xxxxxxxx    $r[27]: xxxxxxxx
time:  761.0 ns ns	 $r[12]: xxxxxxxx    $r[28]: xxxxxxxx
time:  771.0 ns ns	 $r[13]: 100100c0    $r[29]: 000003fc
time:  781.0 ns ns	 $r[14]: 00000000    $r[30]: xxxxxxxx
time:  791.0 ns ns	 $r[15]: 00000000    $r[31]: xxxxxxxx
 
                CECS 440   D a t a M e m o r y   D u m p    
time= 792.0 ns	DM[0c0]=12345678
time= 792.0 ns	DM[0c4]=xxxxxxxx
time= 792.0 ns	DM[0c8]=xxxxxxxx
time= 792.0 ns	DM[0cc]=xxxxxxxx
time= 792.0 ns	DM[0d0]=xxxxxxxx
time= 792.0 ns	DM[0d4]=xxxxxxxx
time= 792.0 ns	DM[0d8]=xxxxxxxx
time= 792.0 ns	DM[0dc]=xxxxxxxx
time= 792.0 ns	DM[0e0]=xxxxxxxx
time= 792.0 ns	DM[0e4]=xxxxxxxx
time= 792.0 ns	DM[0e8]=xxxxxxxx
time= 792.0 ns	DM[0ec]=xxxxxxxx
time= 792.0 ns	DM[0f0]=xxxxxxxx
time= 792.0 ns	DM[0f4]=xxxxxxxx
time= 792.0 ns	DM[0f8]=xxxxxxxx
time= 792.0 ns	DM[0fc]=xxxxxxxx
time= 792.0 ns	DM[3fc]=xxxxxxxx
Stopped at time : 792 ns : File "C:/Users/Justin/Downloads/GBRAINS_CPU/CPU_V1(Modules1-12)/MCU.v" Line 626
# run all
BREAK INSTRUCTION FETCHED  800.0 ns
 R E G I S T E R S	A F T E R	B R E A K
 
                    CECS 440   R e g i s t e r   D u m p    
************************************************************
   TIME        ||               Regfile T ($ri)   ||        
************************************************************
time:  821.0 ns ns	 $r[0]: 00000000    $r[16]: xxxxxxxx
time:  831.0 ns ns	 $r[1]: 12345678    $r[17]: xxxxxxxx
time:  841.0 ns ns	 $r[2]: 87654321    $r[18]: xxxxxxxx
time:  851.0 ns ns	 $r[3]: 12345678    $r[19]: xxxxxxxx
time:  861.0 ns ns	 $r[4]: xxxxxxxx    $r[20]: xxxxxxxx
time:  871.0 ns ns	 $r[5]: xxxxxxxx    $r[21]: xxxxxxxx
time:  881.0 ns ns	 $r[6]: xxxxxxxx    $r[22]: xxxxxxxx
time:  891.0 ns ns	 $r[7]: xxxxxxxx    $r[23]: xxxxxxxx
time:  901.0 ns ns	 $r[8]: xxxxxxxx    $r[24]: xxxxxxxx
time:  911.0 ns ns	 $r[9]: xxxxxxxx    $r[25]: xxxxxxxx
time:  921.0 ns ns	 $r[10]: xxxxxxxx    $r[26]: xxxxxxxx
time:  931.0 ns ns	 $r[11]: xxxxxxxx    $r[27]: xxxxxxxx
time:  941.0 ns ns	 $r[12]: xxxxxxxx    $r[28]: xxxxxxxx
time:  951.0 ns ns	 $r[13]: 100100c0    $r[29]: 000003fc
time:  961.0 ns ns	 $r[14]: 00000000    $r[30]: xxxxxxxx
time:  971.0 ns ns	 $r[15]: 00000000    $r[31]: xxxxxxxx
 
                CECS 440   D a t a M e m o r y   D u m p    
time= 972.0 ns	DM[0c0]=12345678
time= 972.0 ns	DM[0c4]=xxxxxxxx
time= 972.0 ns	DM[0c8]=xxxxxxxx
time= 972.0 ns	DM[0cc]=xxxxxxxx
time= 972.0 ns	DM[0d0]=xxxxxxxx
time= 972.0 ns	DM[0d4]=xxxxxxxx
time= 972.0 ns	DM[0d8]=xxxxxxxx
time= 972.0 ns	DM[0dc]=xxxxxxxx
time= 972.0 ns	DM[0e0]=xxxxxxxx
time= 972.0 ns	DM[0e4]=xxxxxxxx
time= 972.0 ns	DM[0e8]=xxxxxxxx
time= 972.0 ns	DM[0ec]=xxxxxxxx
time= 972.0 ns	DM[0f0]=xxxxxxxx
time= 972.0 ns	DM[0f4]=xxxxxxxx
time= 972.0 ns	DM[0f8]=xxxxxxxx
time= 972.0 ns	DM[0fc]=xxxxxxxx
time= 972.0 ns	DM[3fc]=xxxxxxxx
Stopped at time : 972 ns : File "C:/Users/Justin/Downloads/GBRAINS_CPU/CPU_V1(Modules1-12)/MCU.v" Line 626
